<?xml version="1.0" encoding="UTF-8" standalone="no"?>
<svg
   height="140"
   width="230"
   version="1.1"
   id="svg910"
   sodipodi:docname="controls-dropdowns.svg"
   inkscape:version="1.3 (0e150ed6c4, 2023-07-21)"
   xmlns:inkscape="http://www.inkscape.org/namespaces/inkscape"
   xmlns:sodipodi="http://sodipodi.sourceforge.net/DTD/sodipodi-0.dtd"
   xmlns="http://www.w3.org/2000/svg"
   xmlns:svg="http://www.w3.org/2000/svg">
  <defs
     id="defs914" />
  <sodipodi:namedview
     id="namedview912"
     pagecolor="#505050"
     bordercolor="#ffffff"
     borderopacity="1"
     inkscape:showpageshadow="0"
     inkscape:pageopacity="0"
     inkscape:pagecheckerboard="1"
     inkscape:deskcolor="#505050"
     showgrid="true"
     inkscape:current-layer="svg910">
    <inkscape:grid
       id="grid1"
       units="px"
       originx="0"
       originy="0"
       spacingx="1"
       spacingy="1"
       empcolor="#3f3fff"
       empopacity="0.25098039"
       color="#3f3fff"
       opacity="0.1254902"
       empspacing="5"
       dotted="false"
       gridanglex="30"
       gridanglez="30"
       visible="true" />
  </sodipodi:namedview>
  <rect
     style="font-variation-settings:normal;opacity:1;vector-effect:none;fill:#ff7800;fill-opacity:0.99667245;stroke:none;stroke-width:18;stroke-linecap:round;stroke-linejoin:miter;stroke-miterlimit:4;stroke-dasharray:none;stroke-dashoffset:26.4;stroke-opacity:1;-inkscape-stroke:none;stop-color:#000000;stop-opacity:1"
     width="230"
     height="140"
     x="0.001"
     ry="19.92585"
     rx="19.92585"
     id="rect894"
     y="0" />
  <g
     transform="translate(-4020 -810) scale(3.77953)"
     id="g908">
    <path
       style="fill:#fff;stroke:none;stroke-width:4.7625;stroke-linecap:round;stroke-dashoffset:26.4"
       d="M1080.294 227.542a2.112 2.112 0 0 0-2.117 2.116v21.696h31.75v-21.696a2.112 2.112 0 0 0-2.117-2.116z"
       id="path896" />
    <rect
       width="31.75"
       height="7.938"
       x="1078.177"
       y="218.281"
       rx="2.117"
       ry="2.117"
       fill="#fff"
       style="fill:#ffa348;fill-opacity:1;stroke:none;stroke-width:0.529167;stroke-miterlimit:4;stroke-dasharray:none"
       id="rect898" />
    <path
       fill="#fff"
       style="fill:#ffbe6f;fill-opacity:1;stroke:none;stroke-width:0.529167;stroke-miterlimit:4;stroke-dasharray:none"
       d="m 1078.177,235.47901 h 31.75 v 5.29087 h -31.75 z"
       id="path900" />
    <path
       d="m158 961-5.994 6-6.006-6z"
       style="fill:#ff7800;fill-opacity:1;stroke:none"
       transform="translate(1065.213 -32.544) scale(.26458)"
       id="path904" />
  </g>
  <rect
     style="fill:#ff7800;fill-opacity:0.996672;stroke-width:18;stroke-linecap:round;stroke-dashoffset:26.4;-inkscape-stroke:none;paint-order:markers stroke fill"
     id="rect1"
     width="75"
     height="10"
     x="65"
     y="25"
     rx="5"
     ry="5" />
  <rect
     style="fill:#ffa348;fill-opacity:1;stroke-width:18;stroke-linecap:round;stroke-dashoffset:26.4;-inkscape-stroke:none;paint-order:markers stroke fill"
     id="rect2"
     width="90"
     height="10"
     x="65"
     y="60"
     rx="5"
     ry="5" />
  <rect
     style="fill:#e66100;fill-opacity:1;stroke-width:18;stroke-linecap:round;stroke-dashoffset:26.4;-inkscape-stroke:none;paint-order:markers stroke fill"
     id="rect3"
     width="75"
     height="10"
     x="65"
     y="84.998482"
     rx="5"
     ry="5" />
  <rect
     style="fill:#ffa348;fill-opacity:1;stroke-width:18;stroke-linecap:round;stroke-dashoffset:26.4;-inkscape-stroke:none;paint-order:markers stroke fill"
     id="rect4"
     width="100"
     height="10"
     x="65"
     y="109.99696"
     rx="5"
     ry="5" />
  <rect
     style="fill:#ffa348;fill-opacity:1;stroke-width:18;stroke-linecap:round;stroke-dashoffset:26.4;-inkscape-stroke:none;paint-order:markers stroke fill"
     id="rect5"
     width="70"
     height="10"
     x="65"
     y="129.99695"
     rx="5"
     ry="5" />
</svg>
