<?xml version="1.0" encoding="UTF-8" standalone="no"?>
<svg
   height="140"
   width="230"
   version="1.1"
   id="svg16"
   sodipodi:docname="controls-textfields-dark.svg"
   inkscape:version="1.3 (0e150ed6c4, 2023-07-21)"
   xmlns:inkscape="http://www.inkscape.org/namespaces/inkscape"
   xmlns:sodipodi="http://sodipodi.sourceforge.net/DTD/sodipodi-0.dtd"
   xmlns="http://www.w3.org/2000/svg"
   xmlns:svg="http://www.w3.org/2000/svg">
  <defs
     id="defs20" />
  <sodipodi:namedview
     id="namedview18"
     pagecolor="#505050"
     bordercolor="#ffffff"
     borderopacity="1"
     inkscape:pageshadow="0"
     inkscape:pageopacity="0"
     inkscape:pagecheckerboard="1"
     showgrid="true"
     inkscape:current-layer="svg16"
     inkscape:showpageshadow="0"
     inkscape:deskcolor="#505050">
    <inkscape:grid
       id="grid1"
       units="px"
       originx="0"
       originy="0"
       spacingx="1"
       spacingy="1"
       empcolor="#3f3fff"
       empopacity="0.25098039"
       color="#3f3fff"
       opacity="0.1254902"
       empspacing="5"
       dotted="false"
       gridanglex="30"
       gridanglez="30"
       visible="true" />
  </sodipodi:namedview>
  <rect
     style="font-variation-settings:normal;opacity:1;vector-effect:none;fill:#3d3846;fill-opacity:1;stroke:none;stroke-width:18;stroke-linecap:round;stroke-linejoin:miter;stroke-miterlimit:4;stroke-dasharray:none;stroke-dashoffset:26.4;stroke-opacity:1;-inkscape-stroke:none;stop-color:#000000;stop-opacity:1"
     width="230"
     height="140"
     x="0.001"
     ry="20.538832"
     rx="20.538832"
     id="rect2"
     y="0" />
  <g
     transform="matrix(8.5674392,0,0,8.5674392,-9133.5454,-1500.6308)"
     id="g14"
     style="fill:#deddda;stroke-width:0.441151">
    <g
       aria-label="A"
       id="text8"
       style="font-weight:700;font-size:8.46667px;line-height:1.25;font-family:Cantarell;-inkscape-font-specification:'Cantarell Bold';letter-spacing:0;word-spacing:0;fill:#deddda;stroke-width:0.116721">
      <path
         d="m 1075.0786,185.66 h 1.1599 l 1.7357,-5.3086 h -0.2371 l 1.7187,5.3086 h 1.2108 l -2.0405,-5.87587 h -1.397 z m 1.38,-1.46473 h 2.811 l -0.1524,-0.97367 h -2.5062 z"
         id="path22"
         style="fill:#deddda;stroke-width:0.116721" />
    </g>
    <g
       style="fill:#deddda;stroke:#d1e3f9;stroke-width:0.293839;stroke-opacity:1"
       id="g12" />
  </g>
  <rect
     style="fill:#9a9996;fill-opacity:1;stroke-width:6;stroke-linecap:round;stroke-linejoin:round;stroke-dashoffset:26.4;paint-order:markers stroke fill"
     id="rect1"
     width="15"
     height="5"
     x="125.00001"
     y="35"
     rx="2.5"
     ry="2.5" />
  <rect
     style="fill:#9a9996;fill-opacity:1;stroke-width:6;stroke-linecap:round;stroke-linejoin:round;stroke-dashoffset:26.4;paint-order:markers stroke fill"
     id="rect3"
     width="15"
     height="5"
     x="125.00001"
     y="110"
     rx="2.5"
     ry="2.5" />
  <rect
     style="fill:#9a9996;fill-opacity:1;stroke-width:5.99999;stroke-linecap:round;stroke-linejoin:round;stroke-dashoffset:26.4;paint-order:markers stroke fill"
     id="rect4"
     width="5"
     height="80"
     x="130.00002"
     y="35"
     rx="2.5"
     ry="2.5" />
</svg>
