<?xml version="1.0" encoding="UTF-8" standalone="no"?>
<svg
   height="140"
   width="230"
   version="1.1"
   id="svg1374"
   sodipodi:docname="controls-menus.svg"
   inkscape:version="1.3 (0e150ed6c4, 2023-07-21)"
   xmlns:inkscape="http://www.inkscape.org/namespaces/inkscape"
   xmlns:sodipodi="http://sodipodi.sourceforge.net/DTD/sodipodi-0.dtd"
   xmlns:xlink="http://www.w3.org/1999/xlink"
   xmlns="http://www.w3.org/2000/svg"
   xmlns:svg="http://www.w3.org/2000/svg">
  <defs
     id="defs1378">
    <linearGradient
       id="linearGradient8"
       inkscape:collect="always">
      <stop
         style="stop-color:#99c1f1;stop-opacity:1;"
         offset="0"
         id="stop8" />
      <stop
         style="stop-color:#8ff0a4;stop-opacity:1"
         offset="1"
         id="stop9" />
    </linearGradient>
    <linearGradient
       inkscape:collect="always"
       xlink:href="#linearGradient8"
       id="linearGradient9"
       x1="15.220137"
       y1="0.57035482"
       x2="230.00101"
       y2="127.30078"
       gradientUnits="userSpaceOnUse" />
  </defs>
  <sodipodi:namedview
     id="namedview1376"
     pagecolor="#505050"
     bordercolor="#ffffff"
     borderopacity="1"
     inkscape:showpageshadow="0"
     inkscape:pageopacity="0"
     inkscape:pagecheckerboard="1"
     inkscape:deskcolor="#505050"
     showgrid="false"
     inkscape:current-layer="svg1374">
    <inkscape:grid
       id="grid1"
       units="px"
       originx="0"
       originy="0"
       spacingx="1"
       spacingy="1"
       empcolor="#3f3fff"
       empopacity="0.25098039"
       color="#3f3fff"
       opacity="0.1254902"
       empspacing="5"
       dotted="false"
       gridanglex="30"
       gridanglez="30"
       visible="false" />
  </sodipodi:namedview>
  <rect
     style="font-variation-settings:normal;opacity:1;vector-effect:none;fill:url(#linearGradient9);fill-opacity:1;stroke:none;stroke-width:18;stroke-linecap:round;stroke-linejoin:miter;stroke-miterlimit:4;stroke-dasharray:none;stroke-dashoffset:26.4;stroke-opacity:1;-inkscape-stroke:none;stop-color:#000000;stop-opacity:1"
     width="230"
     height="140"
     x="0.001"
     ry="20"
     rx="20"
     id="rect1364"
     y="0" />
  <rect
     style="fill:#ffffff;fill-opacity:0.914225;stroke-width:18;stroke-linecap:round;stroke-dashoffset:26.4;-inkscape-stroke:none;paint-order:markers stroke fill"
     id="rect1"
     width="130"
     height="110"
     x="50"
     y="14.999998"
     rx="10"
     ry="9.999999" />
  <rect
     style="fill:#dfdfdd;fill-opacity:1;stroke-width:18;stroke-linecap:round;stroke-dashoffset:26.4;-inkscape-stroke:none;paint-order:markers stroke fill"
     id="rect2"
     width="50"
     height="10"
     x="65"
     y="30"
     rx="5"
     ry="5" />
  <rect
     style="fill:#deddda;fill-opacity:0.914225;stroke-width:18;stroke-linecap:round;stroke-dashoffset:26.4;-inkscape-stroke:none;paint-order:markers stroke fill"
     id="rect7"
     width="120"
     height="20"
     x="55"
     y="50"
     rx="5"
     ry="5" />
  <rect
     style="fill:#5e5c64;fill-opacity:0.914225;stroke-width:18;stroke-linecap:round;stroke-dashoffset:26.4;-inkscape-stroke:none;paint-order:markers stroke fill"
     id="rect3"
     width="60"
     height="10"
     x="65"
     y="55"
     rx="5"
     ry="5" />
  <rect
     style="fill:#dfdfdd;fill-opacity:1;stroke-width:18;stroke-linecap:round;stroke-dashoffset:26.4;-inkscape-stroke:none;paint-order:markers stroke fill"
     id="rect4"
     width="95"
     height="10"
     x="65"
     y="80"
     rx="5"
     ry="5" />
  <rect
     style="fill:#dfdfdd;fill-opacity:1;stroke-width:18;stroke-linecap:round;stroke-dashoffset:26.4;-inkscape-stroke:none;paint-order:markers stroke fill"
     id="rect5"
     width="70"
     height="10"
     x="65"
     y="100"
     rx="5"
     ry="5" />
</svg>
