<?xml version="1.0" encoding="UTF-8" standalone="no"?>
<svg
   height="140"
   width="230"
   version="1.1"
   id="svg2709"
   sodipodi:docname="controls-radiobuttons-dark.svg"
   inkscape:version="1.3 (0e150ed6c4, 2023-07-21)"
   xmlns:inkscape="http://www.inkscape.org/namespaces/inkscape"
   xmlns:sodipodi="http://sodipodi.sourceforge.net/DTD/sodipodi-0.dtd"
   xmlns="http://www.w3.org/2000/svg"
   xmlns:svg="http://www.w3.org/2000/svg">
  <defs
     id="defs2713" />
  <sodipodi:namedview
     id="namedview2711"
     pagecolor="#505050"
     bordercolor="#ffffff"
     borderopacity="1"
     inkscape:showpageshadow="0"
     inkscape:pageopacity="0"
     inkscape:pagecheckerboard="1"
     inkscape:deskcolor="#505050"
     showgrid="true"
     inkscape:current-layer="svg2709">
    <inkscape:grid
       id="grid1"
       units="px"
       originx="0"
       originy="0"
       spacingx="1"
       spacingy="1"
       empcolor="#3f3fff"
       empopacity="0.25098039"
       color="#3f3fff"
       opacity="0.1254902"
       empspacing="5"
       dotted="false"
       gridanglex="30"
       gridanglez="30"
       visible="true" />
  </sodipodi:namedview>
  <rect
     style="font-variation-settings:normal;opacity:1;vector-effect:none;fill:#3d3846;fill-opacity:0.991609;stroke:none;stroke-width:18;stroke-linecap:round;stroke-linejoin:miter;stroke-miterlimit:4;stroke-dasharray:none;stroke-dashoffset:26.4;stroke-opacity:1;-inkscape-stroke:none;stop-color:#000000;stop-opacity:1"
     width="230"
     height="140"
     x="0.001"
     ry="20"
     rx="20"
     id="rect2697"
     y="0" />
  <g
     transform="matrix(3.77953,0,0,3.77953,-4507.5046,-620)"
     id="g2707">
    <circle
       style="fill:#241f31;fill-opacity:1;stroke-width:0.264584;stroke-linecap:round;stroke-dashoffset:26.4"
       cx="-1207.823"
       cy="175.286"
       r="5.9534707"
       transform="scale(-1,1)"
       id="circle2699" />
    <circle
       style="fill:#241f31;fill-opacity:1;stroke-width:0.264582;stroke-linecap:round;stroke-dashoffset:26.4"
       cx="-1207.823"
       cy="191.16193"
       r="5.9537063"
       transform="scale(-1,1)"
       id="circle2701" />
    <circle
       style="fill:#3584e4;fill-opacity:1;stroke-width:0.264583;stroke-linecap:round;stroke-dashoffset:26.4"
       cx="-1207.823"
       cy="175.286"
       r="3.3076391"
       transform="scale(-1,1)"
       id="circle2703" />
  </g>
  <rect
     style="fill:#deddda;fill-opacity:1;stroke-width:18;stroke-linecap:round;stroke-dashoffset:26.4;-inkscape-stroke:none;paint-order:markers stroke fill"
     id="rect1"
     width="100"
     height="20"
     x="90"
     y="30"
     rx="10"
     ry="10" />
  <rect
     style="fill:#deddda;fill-opacity:1;stroke-width:18;stroke-linecap:round;stroke-dashoffset:26.4;-inkscape-stroke:none;paint-order:markers stroke fill"
     id="rect2"
     width="100"
     height="20"
     x="90"
     y="90"
     rx="10"
     ry="10" />
</svg>
