<?xml version="1.0" encoding="UTF-8" standalone="no"?>
<svg
   height="140"
   width="230"
   version="1.1"
   id="svg8640"
   sodipodi:docname="feedback-notifications-dark.svg"
   inkscape:version="1.3 (0e150ed6c4, 2023-07-21)"
   xmlns:inkscape="http://www.inkscape.org/namespaces/inkscape"
   xmlns:sodipodi="http://sodipodi.sourceforge.net/DTD/sodipodi-0.dtd"
   xmlns="http://www.w3.org/2000/svg"
   xmlns:svg="http://www.w3.org/2000/svg">
  <defs
     id="defs8644" />
  <sodipodi:namedview
     id="namedview8642"
     pagecolor="#505050"
     bordercolor="#ffffff"
     borderopacity="1"
     inkscape:showpageshadow="0"
     inkscape:pageopacity="0"
     inkscape:pagecheckerboard="1"
     inkscape:deskcolor="#505050"
     showgrid="true"
     inkscape:current-layer="svg8640">
    <inkscape:grid
       id="grid1"
       units="px"
       originx="0"
       originy="0"
       spacingx="1"
       spacingy="1"
       empcolor="#3f3fff"
       empopacity="0.25098039"
       color="#3f3fff"
       opacity="0.1254902"
       empspacing="5"
       dotted="false"
       gridanglex="30"
       gridanglez="30"
       visible="true" />
  </sodipodi:namedview>
  <rect
     style="font-variation-settings:normal;opacity:1;vector-effect:none;fill:#9141ac;fill-opacity:1;stroke:none;stroke-width:18;stroke-linecap:round;stroke-linejoin:miter;stroke-miterlimit:4;stroke-dasharray:none;stroke-dashoffset:26.4;stroke-opacity:1;-inkscape-stroke:none;stop-color:#000000;stop-opacity:1"
     width="230"
     height="140"
     x="0.001"
     ry="25.193888"
     rx="25.193888"
     id="rect8612"
     y="0" />
  <g
     transform="translate(-3174.997 -430) scale(3.77953)"
     id="g8638">
    <rect
       style="fill:#c061cb;fill-opacity:1;stroke:none;stroke-width:4.7625;stroke-linecap:round;stroke-dashoffset:26.4"
       width="37.043"
       height="9.525"
       x="851.957"
       y="116.681"
       ry="2.117"
       rx="2.117"
       id="rect8614" />
    <path
       fill="#99c1f1"
       style="fill:#613583;fill-opacity:1;stroke-width:0.264583"
       transform="scale(1 -1)"
       d="M862.542-123.031h21.167v1.058h-21.167z"
       id="path8616" />
    <path
       fill="#99c1f1"
       style="fill:#613583;fill-opacity:1;stroke-width:0.264582"
       transform="scale(1 -1)"
       d="M862.542-120.915h22.49v1.058h-22.49z"
       id="path8618" />
    <circle
       style="fill:#613583;fill-opacity:1;stroke:none;stroke-width:1.05833;stroke-linecap:round;stroke-linejoin:round;stroke-dashoffset:26.4;stroke-opacity:1"
       cx="857.25"
       cy="121.444"
       r="2.646"
       id="circle8620" />
    <rect
       style="fill:#c061cb;fill-opacity:1;stroke:none;stroke-width:4.7625;stroke-linecap:round;stroke-dashoffset:26.4"
       width="37.043"
       height="9.525"
       x="851.957"
       y="127.529"
       ry="2.117"
       rx="2.117"
       id="rect8622" />
    <path
       fill="#99c1f1"
       style="fill:#613583;fill-opacity:1;stroke-width:0.264583"
       transform="scale(1 -1)"
       d="M862.542-133.879h11.906v1.058h-11.906z"
       id="path8624" />
    <path
       fill="#99c1f1"
       style="fill:#613583;fill-opacity:1;stroke-width:0.264582"
       transform="scale(1 -1)"
       d="M862.542-131.763h22.49v1.058h-22.49z"
       id="path8626" />
    <circle
       style="fill:#613583;fill-opacity:1;stroke:none;stroke-width:1.05833;stroke-linecap:round;stroke-linejoin:round;stroke-dashoffset:26.4;stroke-opacity:1"
       cx="857.25"
       cy="132.292"
       r="2.646"
       id="circle8628" />
    <rect
       style="fill:#c061cb;fill-opacity:1;stroke:none;stroke-width:4.7625;stroke-linecap:round;stroke-dashoffset:26.4"
       width="37.043"
       height="9.525"
       x="851.957"
       y="138.377"
       ry="2.117"
       rx="2.117"
       id="rect8630" />
    <path
       fill="#99c1f1"
       style="fill:#613583;fill-opacity:1;stroke-width:0.264583"
       transform="scale(1 -1)"
       d="M862.542-144.727h19.844v1.058h-19.844z"
       id="path8632" />
    <path
       fill="#99c1f1"
       style="fill:#613583;fill-opacity:1;stroke-width:0.264582"
       transform="scale(1 -1)"
       d="M862.542-142.61h22.49v1.058h-22.49z"
       id="path8634" />
    <circle
       style="fill:#613583;fill-opacity:1;stroke:none;stroke-width:1.05833;stroke-linecap:round;stroke-linejoin:round;stroke-dashoffset:26.4;stroke-opacity:1"
       cx="857.25"
       cy="143.14"
       r="2.646"
       id="circle8636" />
  </g>
</svg>
